\relax 
\@writefile{toc}{\contentsline {part}{II\hspace  {1em}Public Key Kryptosysteme}{4}}
\@writefile{toc}{\contentsline {section}{\numberline {2}Faktorisierungsproblem}{4}}
\@writefile{toc}{\contentsline {section}{\numberline {3}Diskreter-Logarithmus-Problem}{4}}
\@writefile{toc}{\contentsline {section}{\numberline {4}Einwegfunktionen}{5}}
\@writefile{toc}{\contentsline {section}{\numberline {5}Fallt\IeC {\"u}rfunktionen}{5}}
\@writefile{toc}{\contentsline {section}{\numberline {6}Primzahlen}{5}}
\@writefile{toc}{\contentsline {subsection}{\numberline {6.1}Primzahlsatz}{5}}
\@writefile{toc}{\contentsline {subsection}{\numberline {6.2}Satz von Fermat}{5}}
\@writefile{toc}{\contentsline {subsection}{\numberline {6.3}Carmichael Zahlen}{6}}
\@writefile{toc}{\contentsline {subsection}{\numberline {6.4}Verbesserung der Modularen Exponentation - Witness}{6}}
\@writefile{toc}{\contentsline {subsection}{\numberline {6.5}Miller-Rabin-Test}{6}}
\@writefile{toc}{\contentsline {section}{\numberline {7}Rabin-Kryptosystem}{6}}
\@writefile{toc}{\contentsline {subsection}{\numberline {7.1}Quadratische Reste}{7}}
\@writefile{toc}{\contentsline {subsection}{\numberline {7.2}Chinesischer Restsatz}{7}}
\@writefile{toc}{\contentsline {subsection}{\numberline {7.3}Entschl\IeC {\"u}sselung}{7}}
\@writefile{toc}{\contentsline {subsection}{\numberline {7.4}Sicherheitsaspekte von Rabin-Kryptosystem}{8}}
\@writefile{toc}{\contentsline {section}{\numberline {8}RSA}{8}}
\@writefile{toc}{\contentsline {subsection}{\numberline {8.1}Definition}{8}}
\@writefile{toc}{\contentsline {subsection}{\numberline {8.2}Beispiel}{8}}
\@writefile{toc}{\contentsline {subsection}{\numberline {8.3}Funktion von RSA}{8}}
\@writefile{toc}{\contentsline {subsection}{\numberline {8.4}Sicherheit von RSA}{9}}
\@writefile{toc}{\contentsline {subsection}{\numberline {8.5}RSA-Schl\IeC {\"u}sselgenerierung}{9}}
\@writefile{toc}{\contentsline {subsection}{\numberline {8.6}Garner-Verfahren}{9}}
\@writefile{toc}{\contentsline {subsection}{\numberline {8.7}Angriffe auf RSA}{9}}
\@writefile{toc}{\contentsline {subsubsection}{\numberline {8.7.1}Faktorisierung von n bei bekannten $\Phi (n)$}{9}}
\@writefile{toc}{\contentsline {subsubsection}{\numberline {8.7.2}Wiener-Attacke}{10}}
\@writefile{toc}{\contentsline {subsubsection}{\numberline {8.7.3}Highest-Order-Bit-Attacke}{10}}
\@setckpt{./sections/pubkey}{
\setcounter{page}{11}
\setcounter{equation}{0}
\setcounter{enumi}{3}
\setcounter{enumii}{0}
\setcounter{enumiii}{0}
\setcounter{enumiv}{0}
\setcounter{footnote}{2}
\setcounter{mpfootnote}{0}
\setcounter{part}{2}
\setcounter{section}{8}
\setcounter{subsection}{7}
\setcounter{subsubsection}{3}
\setcounter{paragraph}{0}
\setcounter{subparagraph}{0}
\setcounter{figure}{0}
\setcounter{table}{0}
\setcounter{parentequation}{0}
}
